<svg xmlns="http://www.w3.org/2000/svg" width="9.999" height="7.303" viewBox="0 0 9.999 7.303">
  <path id="Union_298" data-name="Union 298" d="M3.229,7.2a.953.953,0,0,1-.252-.181L2.954,7,.279,4.326A.954.954,0,1,1,1.628,2.977L3.651,5,8.372.279A.954.954,0,0,1,9.721,1.628l-5.4,5.4a.953.953,0,0,1-1.1.181Z" transform="translate(0 0)" fill="#fff"/>
</svg>
