<svg xmlns="http://www.w3.org/2000/svg" width="101.136" height="22.092" viewBox="0 0 101.136 22.092">
  <g id="Group_19912" data-name="Group 19912" transform="translate(-53.5 -46.8)">
    <path id="Path_15928" data-name="Path 15928" d="M273.083,46.8h-5.321L258.5,56.062v5.321l6.07,6.07h5.321l9.262-9.262V52.87Zm1.616,9.341L267.841,63h-1.616l-3.252-3.252V58.131l6.858-6.858h1.616l3.252,3.252Z" transform="translate(-164.601)" fill="#333"/>
    <path id="Path_15929" data-name="Path 15929" d="M497.256,46.8H484.9V67.453h4.611V62.841h7.745l3.764-3.764V50.564Zm-.847,10.583-1.143,1.143h-5.754v-7.41h5.754l1.143,1.143Z" transform="translate(-346.384)" fill="#333"/>
    <g id="Group_19911" data-name="Group 19911" transform="translate(53.5 46.8)">
      <path id="Path_15930" data-name="Path 15930" d="M65.009,61.994l-1.143,1.143H59.254l-1.143-1.143V52.259l1.143-1.143h4.611l1.143,1.143v2.917H69.62V50.564L65.856,46.8H57.264L53.5,50.564V63.689l3.764,3.764h8.592l3.764-3.764V59.412H65.009Z" transform="translate(-53.5 -46.8)" fill="#333"/>
    </g>
    <path id="Path_15931" data-name="Path 15931" d="M175.609,65.738l-3.981-3.981,3.193-3.193v-8L171.056,46.8H158.7V67.453h4.611V62.329h2.582l6.562,6.562Zm-12.3-14.623h5.754l1.143,1.143v4.592l-1.143,1.143h-5.754Z" transform="translate(-84.468 0)" fill="#333"/>
    <path id="Path_15932" data-name="Path 15932" d="M393.256,46.8H380.9V67.453h4.611V62.841h7.745l3.764-3.764V50.564Zm-.847,10.583-1.143,1.143h-5.754v-7.41h5.754l1.143,1.143Z" transform="translate(-262.879)" fill="#333"/>
  </g>
</svg>
