<svg xmlns="http://www.w3.org/2000/svg" width="118" height="38" viewBox="0 0 118 38">
  <text id="mascotte" transform="translate(0 31)" fill="#333" font-size="29" font-family="SegoeUI, Segoe UI"><tspan x="0" y="0">mascotte</tspan></text>
</svg>
