<svg xmlns="http://www.w3.org/2000/svg" width="42.73" height="42.73" viewBox="0 0 42.73 42.73">
  <g id="youtube" transform="translate(0.5 0.5)">
    <g id="Group_19696" data-name="Group 19696" transform="translate(0 0)">
      <g id="Group_19695" data-name="Group 19695">
        <path id="Path_15766" data-name="Path 15766" d="M35.619,6.111A20.865,20.865,0,1,0,6.111,35.619,20.865,20.865,0,1,0,35.619,6.111Zm-14.754,34.3A19.547,19.547,0,1,1,40.413,20.865,19.57,19.57,0,0,1,20.865,40.413Z" transform="translate(0 0)" fill="#00aeef" stroke="#00aeef" stroke-miterlimit="10" stroke-width="1"/>
      </g>
    </g>
    <g id="Group_19698" data-name="Group 19698" transform="translate(5.274 8.789)">
      <g id="Group_19697" data-name="Group 19697">
        <path id="Path_15767" data-name="Path 15767" d="M95.215,110.58a2.391,2.391,0,0,0-2.1-2.026,114,114,0,0,0-25.629,0,2.391,2.391,0,0,0-2.1,2.026,64.547,64.547,0,0,0,0,18.657,2.391,2.391,0,0,0,2.1,2.026,113.874,113.874,0,0,0,12.815.723q2.734,0,5.465-.132a.659.659,0,1,0-.066-1.316,112.671,112.671,0,0,1-18.066-.584,1.072,1.072,0,0,1-.943-.907,63.231,63.231,0,0,1,0-18.276,1.072,1.072,0,0,1,.943-.907,112.686,112.686,0,0,1,25.333,0,1.072,1.072,0,0,1,.943.907,63.231,63.231,0,0,1,0,18.276,1.072,1.072,0,0,1-.943.907h0q-2.032.23-4.073.386a.659.659,0,0,0-.61.656h0a.658.658,0,0,0,.707.657q2.066-.158,4.124-.391a2.391,2.391,0,0,0,2.1-2.026A64.547,64.547,0,0,0,95.215,110.58Z" transform="translate(-64.711 -107.831)" fill="#00aeef" stroke="#00aeef" stroke-miterlimit="10" stroke-width="1"/>
      </g>
    </g>
    <g id="Group_19700" data-name="Group 19700" transform="translate(15.814 14.207)">
      <g id="Group_19699" data-name="Group 19699">
        <path id="Path_15768" data-name="Path 15768" d="M206.407,180.388l-11.421-6a.659.659,0,0,0-.965.583v12a.659.659,0,0,0,.965.583l11.421-6a.659.659,0,0,0,0-1.167Zm-11.068,5.492v-9.817l9.345,4.909Z" transform="translate(-194.021 -174.313)" fill="#00aeef" stroke="#00aeef" stroke-miterlimit="10" stroke-width="1"/>
      </g>
    </g>
  </g>
</svg>
