<svg xmlns="http://www.w3.org/2000/svg" width="18" height="18" viewBox="0 0 18 18">
  <g id="Group_19726" data-name="Group 19726" transform="translate(-352 -2442.5)">
    <rect id="Rectangle_10907" data-name="Rectangle 10907" width="18" height="3" transform="translate(352 2450)" fill="#262a2b"/>
    <rect id="Rectangle_10908" data-name="Rectangle 10908" width="18" height="3" transform="translate(359.5 2460.5) rotate(-90)" fill="#262a2b"/>
  </g>
</svg>
